{
  "categories": {
    "cate_01": {
      "categoryCode": "zxcv",
      "categoryName": "cate_01",
      "categoryDescription": "first",
      "showDisabled": false,
      "storeBranchUid": 0,
      "storeUid": 0,
      "useFlag": 1,
      "categoryOrder": 0,
      "isDisplay": 1,
      "childType": "category"
    },
    "MC03": {
      "categoryCode": "qwerty",
      "categoryName": "child_cate_01",
      "categoryDescription": "",
      "parentCategory": "zxcv",
      "showDisabled": false,
      "storeBranchUid": 0,
      "storeUid": 2,
      "useFlag": 1,
      "categoryOrder": 0,
      "isDisplay": 1,
      "childType": "food"
    }
  }
}